…
                So we can see there's a consistent oscilating pattern (which definitely makes sense), but it's still hard to pull out any interesting patterns. What if we plotted instead of just these raw values, the monthly mean for each month in our dataframe. This brings up some handy data manipulation tasks as well. 

                So to do this, there are a number of approaches we could take. I will choose to perform this task by making a new, separate dataframe with the monthly mean information as this will make life much easier. 

                The first step is to extract the month and year as separate columns (See info on dates here):

df = df %>%
  dplyr::rowwise() %>%
  dplyr::mutate(
    month = lubridate::month(date),
    year = lubridate::year(date)
  )
df

## # A tibble: 11,171 × 7
## # Rowwise: 
##    date       station              mean_airtemp daily_precip mean_windspeed month  year
##    <date>     <chr>                       <dbl>        <dbl>          <dbl> <dbl> <dbl>
##  1 1988-06-01 Toolik Field Station          8.4          0             NA       6  1988
##  2 1988-06-02 Toolik Field Station          6            0             NA       6  1988
##  3 1988-06-03 Toolik Field Station          5.8          0             NA       6  1988
##  4 1988-06-04 Toolik Field Station          1.8          0             NA       6  1988
##  5 1988-06-05 Toolik Field Station          6.8          2.5           NA       6  1988
##  6 1988-06-06 Toolik Field Station          5.2          0             NA       6  1988
##  7 1988-06-07 Toolik Field Station          2.2          7.6           NA       6  1988
##  8 1988-06-08 Toolik Field Station          9.4          0             NA       6  1988
##  9 1988-06-09 Toolik Field Station         13.1          0             NA       6  1988
## 10 1988-06-10 Toolik Field Station         17.7          0              3.9     6  1988
## # … with 11,161 more rows
                Now we need to create a new dataframe that has only the mean_airtemp, the month, and year:

df_monthly = df %>%
  dplyr::select(year, month, mean_airtemp)

                Now, we'll use our group_by() and summarize() pair to get mean average monthly air temperatures:

df_monthly = df_monthly %>%
  dplyr::group_by(year, month) %>%
  dplyr::summarize(
    month_airtemp = mean(mean_airtemp, na.rm = TRUE)
  )
df_monthly

## # A tibble: 367 × 3
## # Groups:   year [31]
##     year month month_airtemp
##    <dbl> <dbl>         <dbl>
##  1  1988     6          9.61
##  2  1988     7         12.0 
##  3  1988     8          6.96
##  4  1988     9         -0.26
##  5  1988    10        -16.4 
##  6  1988    11        -29.2 
##  7  1988    12        -17.1 
##  8  1989     1        -29.9 
##  9  1989     2         -8.06
## 10  1989     3        -19.4 
## # … with 357 more rows

                Great, this is exactly what we wanted. Now, to make our plotting easier, it would be best if we were asking ggplot to put the same data type on the x-axis, that is, two date values. So, what we'll do here, is inpute a day of the month, and convert our month and year columns into a date. 

                Since we are working with monthly means, let's say for the sake of simplicity we actually just want each faux "day" to be the 15th since that's around the middle of each month: 

df_monthly = df_monthly %>%
  dplyr::mutate(
    day = 15
  )
df_monthly

## # A tibble: 367 × 4
## # Groups:   year [31]
##     year month month_airtemp   day
##    <dbl> <dbl>         <dbl> <dbl>
##  1  1988     6          9.61    15
##  2  1988     7         12.0     15
##  3  1988     8          6.96    15
##  4  1988     9         -0.26    15
##  5  1988    10        -16.4     15
##  6  1988    11        -29.2     15
##  7  1988    12        -17.1     15
##  8  1989     1        -29.9     15
##  9  1989     2         -8.06    15
## 10  1989     3        -19.4     15
## # … with 357 more rows

                Great! And now we convert into a single date column: 

df_monthly = df_monthly %>%
  dplyr::rowwise() %>%
  dplyr::mutate(
    date = lubridate::make_date(year, month, day)
  )
df_monthly

## # A tibble: 367 × 5
## # Rowwise:  year
##     year month month_airtemp   day date      
##    <dbl> <dbl>         <dbl> <dbl> <date>    
##  1  1988     6          9.61    15 1988-06-15
##  2  1988     7         12.0     15 1988-07-15
##  3  1988     8          6.96    15 1988-08-15
##  4  1988     9         -0.26    15 1988-09-15
##  5  1988    10        -16.4     15 1988-10-15
##  6  1988    11        -29.2     15 1988-11-15
##  7  1988    12        -17.1     15 1988-12-15
##  8  1989     1        -29.9     15 1989-01-15
##  9  1989     2         -8.06    15 1989-02-15
## 10  1989     3        -19.4     15 1989-03-15
## # … with 357 more rows
…
