        Faceting Plots

            Displaying all the relevant information on a single plot panel is ideal as it minimizes the amount of space consumed, but it is sometimes impossible to use only one plot panel and maintain a readable plot that isn't crowded or trying to do so much. In this case, a handy approach is to facet the plot which essentially breaks up the plot into multiple panes so that they can be viewed together. 

            Often, this is the case when one or both axes are the same, and a separate variable or group of that variable is being shown on each plotting pane. For example here, let's refer to data on stream chemisty: 

library(tidyverse)
library(lterdatasampler)

df <- lterdatasampler::luq_streamchem
df

## # A tibble: 317 × 22
##    sample_id sample_date gage_ht  temp   p_h  cond    cl no3_n so4_s    na     k    mg
##    <chr>     <date>        <dbl> <dbl> <dbl> <dbl> <dbl> <dbl> <dbl> <dbl> <dbl> <dbl>
##  1 QS        1987-01-05     2.82    20  7.22  48.2   7.3    97  0.52  4.75  0.18  1.5 
##  2 QS        1987-01-13     2.66    20  7.34  49.8   7.5   114  0.73  4.81  0.19  1.58
##  3 QS        1987-01-20     2.61    20  7.12  50.3   7.5   115 NA     5.19  0.2   1.66
##  4 QS        1987-01-27     2.58    20  7.19  50.4   7.3   117 NA     5.08  0.18  1.64
##  5 QS        1987-02-03     2.8     20  7.36  49.6   7.3   103  0.85  4.86  0.17  1.49
##  6 QS        1987-02-10     2.63    20  7.19  53.3   7.2   110 NA     5.11  0.18  1.59
##  7 QS        1987-02-17     2.84    20 NA     43.7   7      94 NA     4.8   0.17  1.44
##  8 QS        1987-02-24     2.68    19  6.93  48.4   7.3    90 NA     5.08  0.18  1.6 
##  9 QS        1987-03-03     2.76    20  7.02  48.4   7.6    86 NA     4.9   0.2   1.64
## 10 QS        1987-03-10     2.64    20  7.17  49.9   7.3    97 NA     4.89  0.2   1.51
## # … with 307 more rows, and 10 more variables: ca <dbl>, nh4_n <dbl>, po4_p <dbl>,
## #   doc <dbl>, dic <dbl>, tdn <dbl>, tdp <dbl>, si_o2 <dbl>, don <dbl>, tss <dbl>
…
                One (not the only) way to go about this, is to get both of our variables of interest into one column, with a separate grouping column that denotes what the values refer to. The easiest way to do this is by re-shaping the data (LINK TO RESHAPING HERE) Let's do that here: 

df_long <- df %>%
  # remove columns we don't need
  dplyr::select(sample_date, na, k) %>%
  tidyr::pivot_longer(
    # specify which columns to join together
    cols = c(na, k),
    # specify what the new name of the grouping variable will be
    names_to = "element"
  )
df_long

## # A tibble: 634 × 3
##    sample_date element value
##    <date>      <chr>   <dbl>
##  1 1987-01-05  na       4.75
##  2 1987-01-05  k        0.18
##  3 1987-01-13  na       4.81
##  4 1987-01-13  k        0.19
##  5 1987-01-20  na       5.19
##  6 1987-01-20  k        0.2 
##  7 1987-01-27  na       5.08
##  8 1987-01-27  k        0.18
##  9 1987-02-03  na       4.86
## 10 1987-02-03  k        0.17
## # … with 624 more rows

                Perfect! We will also want to pull out the month and year values as columns since it will be month we'll use to group by in our plots.

library(lubridate)

df_long <- df_long %>%
  dplyr::mutate(
    year = lubridate::year(sample_date),
    month = lubridate::month(sample_date)
  )
df_long

## # A tibble: 634 × 5
##    sample_date element value  year month
##    <date>      <chr>   <dbl> <dbl> <dbl>
##  1 1987-01-05  na       4.75  1987     1
##  2 1987-01-05  k        0.18  1987     1
##  3 1987-01-13  na       4.81  1987     1
##  4 1987-01-13  k        0.19  1987     1
##  5 1987-01-20  na       5.19  1987     1
##  6 1987-01-20  k        0.2   1987     1
##  7 1987-01-27  na       5.08  1987     1
##  8 1987-01-27  k        0.18  1987     1
##  9 1987-02-03  na       4.86  1987     2
## 10 1987-02-03  k        0.17  1987     2
## # … with 624 more rows
…
