…
                    For this example, we only will work with some of the variables, so let's first select the columns we want (See more on selection here). 

df <- df %>%
dplyr::select(year, watershed, elevation, leaf1area,
                leaf2area, corrected_leaf_area)
df

## # A tibble: 359 × 6
##     year watershed elevation leaf1area leaf2area corrected_leaf_area
##    <dbl> <fct>     <fct>         <dbl>     <dbl>               <dbl>
##  1  2003 Reference Low           13.8      12.1                29.1 
##  2  2003 Reference Low           14.6      15.3                33.0 
##  3  2003 Reference Low           12.5       9.73               25.3 
##  4  2003 Reference Low            9.97     10.1                23.2 
##  5  2003 Reference Low            6.84      5.48               15.5 
##  6  2003 Reference Low            9.66      7.64               20.4 
##  7  2003 Reference Low            8.82      9.23               21.2 
##  8  2003 Reference Low            5.83      6.18               15.2 
##  9  2003 Reference Low            8.11      7.13               18.4 
## 10  2003 Reference Low            3.02      3.44                9.60
## # … with 349 more rows

                    We could for example, want a column in this dataset that tells us what forest these data are from. That would be an easy use of the mutate() function as there's only one value. We could do this like so:

df <- df %>%
dplyr::mutate(forest = "HBEF")
df

## # A tibble: 359 × 7
##     year watershed elevation leaf1area leaf2area corrected_leaf_area forest
##    <dbl> <fct>     <fct>         <dbl>     <dbl>               <dbl> <chr> 
##  1  2003 Reference Low           13.8      12.1                29.1  HBEF  
##  2  2003 Reference Low           14.6      15.3                33.0  HBEF  
##  3  2003 Reference Low           12.5       9.73               25.3  HBEF  
##  4  2003 Reference Low            9.97     10.1                23.2  HBEF  
##  5  2003 Reference Low            6.84      5.48               15.5  HBEF  
##  6  2003 Reference Low            9.66      7.64               20.4  HBEF  
##  7  2003 Reference Low            8.82      9.23               21.2  HBEF  
##  8  2003 Reference Low            5.83      6.18               15.2  HBEF  
##  9  2003 Reference Low            8.11      7.13               18.4  HBEF  
## 10  2003 Reference Low            3.02      3.44                9.60 HBEF  
## # … with 349 more rows
…
                    Rowwise Functions

                        In these data, there are two measures of leaf area: leaf1area and leaf2area. While they're both very similar, it might still be useful to have a mean estimate for each observation in the data between the two leaf area measurements. 

                        Say we wanted to calculate for row, the mean value of the two measures of leaf area. To make this operation on a row-wise basis, we can use dplyr::rowwise() which will ensure each calculation is done on a single row. Combining this with mutate() will produce our desired result. 

df <- df %>%
dplyr::rowwise() %>%  # ensures calculation done for each row
dplyr::mutate(
    mean_area = mean(c(leaf1area, leaf2area), na.rm = TRUE)
)
df

## # A tibble: 359 × 8
## # Rowwise: 
##     year watershed elevation leaf1area leaf2area corrected_leaf_area forest
##    <dbl> <fct>     <fct>         <dbl>     <dbl>               <dbl> <chr> 
##  1  2003 Reference Low           13.8      12.1                29.1  HBEF  
##  2  2003 Reference Low           14.6      15.3                33.0  HBEF  
##  3  2003 Reference Low           12.5       9.73               25.3  HBEF  
##  4  2003 Reference Low            9.97     10.1                23.2  HBEF  
##  5  2003 Reference Low            6.84      5.48               15.5  HBEF  
##  6  2003 Reference Low            9.66      7.64               20.4  HBEF  
##  7  2003 Reference Low            8.82      9.23               21.2  HBEF  
##  8  2003 Reference Low            5.83      6.18               15.2  HBEF  
##  9  2003 Reference Low            8.11      7.13               18.4  HBEF  
## 10  2003 Reference Low            3.02      3.44                9.60 HBEF  
## # … with 349 more rows, and 1 more variable: mean_area <dbl>

                        Now, again, we have our new column tacked on at the end of our dataframe just as we wanted. 

                        Since we have now a mean estimate of leaf area, we might want to compare that to our measure of corrected_leaf_area. We might want, for instance, to see if the corrected_leaf_area is a consistent proportion larger than the mean of the two leaf area measurements.

                        To go about this, we might want to get a ratio of the mean_area and the corected_leaf_area for each row. To do so, we can create an operation very similarly to above: 

df <- df %>%
dplyr::rowwise() %>%  # we still need this to get a value for each row
dplyr::mutate(
    corrected_mean_ratio = mean_area / corrected_leaf_area
)
df

## # A tibble: 359 × 9
## # Rowwise: 
##     year watershed elevation leaf1area leaf2area corrected_leaf_area forest
##    <dbl> <fct>     <fct>         <dbl>     <dbl>               <dbl> <chr> 
##  1  2003 Reference Low           13.8      12.1                29.1  HBEF  
##  2  2003 Reference Low           14.6      15.3                33.0  HBEF  
##  3  2003 Reference Low           12.5       9.73               25.3  HBEF  
##  4  2003 Reference Low            9.97     10.1                23.2  HBEF  
##  5  2003 Reference Low            6.84      5.48               15.5  HBEF  
##  6  2003 Reference Low            9.66      7.64               20.4  HBEF  
##  7  2003 Reference Low            8.82      9.23               21.2  HBEF  
##  8  2003 Reference Low            5.83      6.18               15.2  HBEF  
##  9  2003 Reference Low            8.11      7.13               18.4  HBEF  
## 10  2003 Reference Low            3.02      3.44                9.60 HBEF  
## # … with 349 more rows, and 2 more variables: mean_area <dbl>,
## #   corrected_mean_ratio <dbl>
…
dplyr::rowwise() %>%
dplyr::mutate(
    # we specify we want this as a factor 
    corrected_above_below = as.factor(ifelse(
    # this is the logical test
    corrected_leaf_area > mean_val,
    # value if test is TRUE
    "Above",
    # value if test is FALSE
    "Below"
    ))
)
df

## # A tibble: 359 × 10
## # Rowwise: 
##     year watershed elevation leaf1area leaf2area corrected_leaf_area forest
##    <dbl> <fct>     <fct>         <dbl>     <dbl>               <dbl> <chr> 
##  1  2003 Reference Low           13.8      12.1                29.1  HBEF  
##  2  2003 Reference Low           14.6      15.3                33.0  HBEF  
##  3  2003 Reference Low           12.5       9.73               25.3  HBEF  
##  4  2003 Reference Low            9.97     10.1                23.2  HBEF  
##  5  2003 Reference Low            6.84      5.48               15.5  HBEF  
##  6  2003 Reference Low            9.66      7.64               20.4  HBEF  
##  7  2003 Reference Low            8.82      9.23               21.2  HBEF  
##  8  2003 Reference Low            5.83      6.18               15.2  HBEF  
##  9  2003 Reference Low            8.11      7.13               18.4  HBEF  
## 10  2003 Reference Low            3.02      3.44                9.60 HBEF  
## # … with 349 more rows, and 3 more variables: mean_area <dbl>,
## #   corrected_mean_ratio <dbl>, corrected_above_below <fct>
…
                        Now, let's perform our calculation: 

df <- df %>%
dplyr::rowwise() %>%
dplyr::mutate(
    # we can use paste() from base R to paste the characters together
    group = as.factor(paste(year,
                watershed,
                elevation,
                sep = "_")) # we want each component separated by a "_"
)
df

## # A tibble: 359 × 11
## # Rowwise: 
##     year watershed elevation leaf1area leaf2area corrected_leaf_area forest
##    <dbl> <fct>     <fct>         <dbl>     <dbl>               <dbl> <chr> 
##  1  2003 Reference Low           13.8      12.1                29.1  HBEF  
##  2  2003 Reference Low           14.6      15.3                33.0  HBEF  
##  3  2003 Reference Low           12.5       9.73               25.3  HBEF  
##  4  2003 Reference Low            9.97     10.1                23.2  HBEF  
##  5  2003 Reference Low            6.84      5.48               15.5  HBEF  
##  6  2003 Reference Low            9.66      7.64               20.4  HBEF  
##  7  2003 Reference Low            8.82      9.23               21.2  HBEF  
##  8  2003 Reference Low            5.83      6.18               15.2  HBEF  
##  9  2003 Reference Low            8.11      7.13               18.4  HBEF  
## 10  2003 Reference Low            3.02      3.44                9.60 HBEF  
## # … with 349 more rows, and 4 more variables: mean_area <dbl>,
## #   corrected_mean_ratio <dbl>, corrected_above_below <fct>, group <fct>
…
