…
                And we see that this worked! So the way we probably use this the most often is to make new columns in a dataframe. Let's go ahead and make a new column each for year, month, week, and day in our df dataframe:

df %>%
# since we want lubridate to work with each row individually, use rowwise()
dplyr::rowwise() %>%
# we use mutate() to make a new column
dplyr::mutate(
    year = lubridate::year(date),
    month = lubridate::month(date),
    week = lubridate::week(date),
    day = lubridate::day(date)
)

## # A tibble: 11,171 × 9
## # Rowwise: 
##    date       station mean_airtemp daily_precip mean_windspeed  year month  week
##    <date>     <chr>          <dbl>        <dbl>          <dbl> <dbl> <dbl> <dbl>
##  1 1988-06-01 Toolik…          8.4          0             NA    1988     6    22
##  2 1988-06-02 Toolik…          6            0             NA    1988     6    22
##  3 1988-06-03 Toolik…          5.8          0             NA    1988     6    23
##  4 1988-06-04 Toolik…          1.8          0             NA    1988     6    23
##  5 1988-06-05 Toolik…          6.8          2.5           NA    1988     6    23
##  6 1988-06-06 Toolik…          5.2          0             NA    1988     6    23
##  7 1988-06-07 Toolik…          2.2          7.6           NA    1988     6    23
##  8 1988-06-08 Toolik…          9.4          0             NA    1988     6    23
##  9 1988-06-09 Toolik…         13.1          0             NA    1988     6    23
## 10 1988-06-10 Toolik…         17.7          0              3.9  1988     6    24
## # … with 11,161 more rows, and 1 more variable: day <int>
…
